{
    "builders": [{
        "type": "virtualbox-ovf",
        "source_path": "/Users/souakira/.vagrant.d/boxes/ubuntu-VAGRANTSLASH-trusty64/20170220.0.0/virtualbox/box.ovf",
        "ssh_username": "vagrant",
        "ssh_password": "vagrant",
        "shutdown_command": "echo 'packer' | sudo -S shutdown -P now",
        "headless": true,
        "vboxmanage": [
            ["modifyvm", "{{.Name}}", "--memory", "1024"],
            ["modifyvm", "{{.Name}}", "--cpus", "2"]
        ]
    }],
    "provisioners": [{
        "type": "shell",
        "inline": [
            "sleep 15",
            "sudo apt-get clean",
            "sudo apt-get update",
            "sudo apt-get install -y apt-transport-https ca-certificates nfs-common",
            "sudo apt-key adv --keyserver hkp://keyserver.ubuntu.com:80 --recv-keys 58118E89F3A912897C070ADBF76221572C52609D",
            "echo 'deb https://apt.dockerproject.org/repo ubuntu-trusty main' | sudo tee /etc/apt/sources.list.d/docker.list",
            "sudo apt-get update",
            "sudo apt-get install -y docker-engine",
            "sudo usermod -aG docker vagrant",
            "sudo curl -L \"https://github.com/docker/compose/releases/download/1.10.0/docker-compose-$(uname -s)-$(uname -m)\" -o /usr/local/bin/docker-compose",
            "sudo chmod +x /usr/local/bin/docker-compose"
        ]
    }],
    "post-processors": [
        {
            "type": "vagrant",
            "output": "packer-ubuntu-docker.box"
        }
    ]
}
